appdirs==1.4.3
asn1crypto==0.22.0
attrs==16.3.0
Automat==0.5.0
boto3==1.4.4
botocore==1.5.26
cffi==1.9.1
constantly==15.1.0
cryptography==1.8.1
cssselect==1.0.1
docutils==0.13.1
enum34==1.1.6
futures==3.0.5
idna==2.5
incremental==16.10.1
ipaddress==1.0.18
jmespath==0.9.2
lxml==3.7.3
packaging==16.8
parsel==1.1.0
psycopg2==2.7.1
pyasn1==0.2.3
pyasn1-modules==0.0.8
pycparser==2.17
PyDispatcher==2.0.5
pyOpenSSL==16.2.0
pyparsing==2.2.0
python-dateutil==2.6.0
queuelib==1.4.2
requests==2.13.0
s3transfer==0.1.10
Scrapy==1.3.3
service-identity==16.0.0
six==1.10.0
Twisted==17.1.0
w3lib==1.17.0
zope.interface==4.3.3
